\relax 
\providecommand\hyper@newdestlabel[2]{}
\@writefile{toc}{\contentsline {chapter}{\numberline {2}Literature Review}{5}{chapter.2}\protected@file@percent }
\@writefile{lof}{\addvspace {10\p@ }}
\@writefile{lot}{\addvspace {10\p@ }}
\@writefile{lol}{\addvspace {10\p@ }}
\@writefile{loa}{\addvspace {10\p@ }}
\newlabel{ch:literature_review}{{2}{5}{Literature Review}{chapter.2}{}}
\newlabel{ch:literature_review@cref}{{[chapter][2][]2}{[1][5][]5}}
\@writefile{toc}{\contentsline {section}{\numberline {2.1}JavaScript Object Notation}{5}{section.2.1}\protected@file@percent }
\newlabel{sec:json}{{2.1}{5}{JavaScript Object Notation}{section.2.1}{}}
\newlabel{sec:json@cref}{{[section][1][2]2.1}{[1][5][]5}}
\@writefile{toc}{\contentsline {section}{\numberline {2.2}CAN Bus}{5}{section.2.2}\protected@file@percent }
\newlabel{sec:can_bus}{{2.2}{5}{CAN Bus}{section.2.2}{}}
\newlabel{sec:can_bus@cref}{{[section][2][2]2.2}{[1][5][]5}}
\@writefile{lof}{\contentsline {figure}{\numberline {2.1}{\ignorespaces Standard \gls {CAN} data frame.}}{6}{figure.2.1}\protected@file@percent }
\newlabel{fig:can_frame}{{2.1}{6}{Standard \gls {CAN} data frame}{figure.2.1}{}}
\newlabel{fig:can_frame@cref}{{[figure][1][2]2.1}{[1][6][]6}}
\@writefile{toc}{\contentsline {section}{\numberline {2.3}MoPS}{7}{section.2.3}\protected@file@percent }
\newlabel{sec:mops}{{2.3}{7}{MoPS}{section.2.3}{}}
\newlabel{sec:mops@cref}{{[section][3][2]2.3}{[1][7][]7}}
\@writefile{toc}{\contentsline {subsection}{\numberline {2.3.1}Targets Configuration}{8}{subsection.2.3.1}\protected@file@percent }
\newlabel{ssec:targets_configuration}{{2.3.1}{8}{Targets Configuration}{subsection.2.3.1}{}}
\newlabel{ssec:targets_configuration@cref}{{[subsection][1][2,3]2.3.1}{[1][7][]8}}
\@writefile{toc}{\contentsline {section}{\numberline {2.4}Scheduling Paradigms}{8}{section.2.4}\protected@file@percent }
\newlabel{sec:scheduling_paradigms}{{2.4}{8}{Scheduling Paradigms}{section.2.4}{}}
\newlabel{sec:scheduling_paradigms@cref}{{[section][4][2]2.4}{[1][8][]8}}
\@writefile{lol}{\contentsline {listing}{\numberline {2.1}{\ignorespaces \IeC {\textmu }MoPS\_v5 configuration file snippet.}}{9}{listing.2.1}\protected@file@percent }
\newlabel{lst:umops_config}{{2.1}{9}{Targets Configuration}{listing.2.1}{}}
\newlabel{lst:umops_config@cref}{{[listing][1][2]2.1}{[1][8][]9}}
\@writefile{toc}{\contentsline {subsection}{\numberline {2.4.1}Scheduling Problem}{10}{subsection.2.4.1}\protected@file@percent }
\newlabel{ssec:scheduling_problem}{{2.4.1}{10}{Scheduling Problem}{subsection.2.4.1}{}}
\newlabel{ssec:scheduling_problem@cref}{{[subsection][1][2,4]2.4.1}{[1][10][]10}}
\@writefile{toc}{\contentsline {subsection}{\numberline {2.4.2}Scheduling Algorithms}{11}{subsection.2.4.2}\protected@file@percent }
\newlabel{ssec:scheduling_algorithm}{{2.4.2}{11}{Scheduling Algorithms}{subsection.2.4.2}{}}
\newlabel{ssec:scheduling_algorithm@cref}{{[subsection][2][2,4]2.4.2}{[1][10][]11}}
\newlabel{itm:edd}{{2.4.2}{11}{Earliest Due Date}{subsection.2.4.2}{}}
\newlabel{itm:edd@cref}{{[subsection][2][2,4]2.4.2}{[1][11][]11}}
\newlabel{itm:edf}{{2.4.2}{11}{Earliest Deadline First}{subsection.2.4.2}{}}
\newlabel{itm:edf@cref}{{[subsection][2][2,4]2.4.2}{[1][11][]11}}
\newlabel{itm:bratleys}{{2.4.2}{12}{Bratley's}{subsection.2.4.2}{}}
\newlabel{itm:bratleys@cref}{{[subsection][2][2,4]2.4.2}{[1][11][]12}}
\newlabel{itm:spring}{{2.4.2}{12}{Spring}{subsection.2.4.2}{}}
\newlabel{itm:spring@cref}{{[subsection][2][2,4]2.4.2}{[1][12][]12}}
\newlabel{itm:ldf}{{2.4.2}{12}{Latest Deadline First}{subsection.2.4.2}{}}
\newlabel{itm:ldf@cref}{{[subsection][2][2,4]2.4.2}{[1][12][]12}}
\newlabel{itm:edf_precedence_constraints}{{2.4.2}{12}{EDF Precedence Constraints}{subsection.2.4.2}{}}
\newlabel{itm:edf_precedence_constraints@cref}{{[subsection][2][2,4]2.4.2}{[1][12][]12}}
\@writefile{toc}{\contentsline {subsubsection}{\nonumberline Scheduling Time-Triggered Communication}{12}{section*.6}\protected@file@percent }
\newlabel{ssec:scheduling_time_triggered}{{2.4.2}{12}{Scheduling Time-Triggered Communication}{section*.6}{}}
\newlabel{ssec:scheduling_time_triggered@cref}{{[subsection][2][2,4]2.4.2}{[1][12][]12}}
\@writefile{toc}{\contentsline {section}{\numberline {2.5}Computational Complexity Theory}{13}{section.2.5}\protected@file@percent }
\newlabel{sec:computational_complexity_theory}{{2.5}{13}{Computational Complexity Theory}{section.2.5}{}}
\newlabel{sec:computational_complexity_theory@cref}{{[section][5][2]2.5}{[1][13][]13}}
\newlabel{itm:p_problem}{{2.5}{13}{P Problems}{section.2.5}{}}
\newlabel{itm:p_problem@cref}{{[section][5][2]2.5}{[1][13][]13}}
\newlabel{itm:np_problem}{{2.5}{13}{NP Problems}{section.2.5}{}}
\newlabel{itm:np_problem@cref}{{[section][5][2]2.5}{[1][13][]13}}
\newlabel{itm:np_hard_problem}{{2.5}{13}{NP-Hard Problems}{section.2.5}{}}
\newlabel{itm:np_hard_problem@cref}{{[section][5][2]2.5}{[1][13][]13}}
\newlabel{itm:np_complete_problem}{{2.5}{13}{NP-Complete Problems}{section.2.5}{}}
\newlabel{itm:np_complete_problem@cref}{{[section][5][2]2.5}{[1][13][]13}}
\@writefile{toc}{\contentsline {section}{\numberline {2.6}Time Utility Function}{14}{section.2.6}\protected@file@percent }
\newlabel{sec:time_utility_function}{{2.6}{14}{Time Utility Function}{section.2.6}{}}
\newlabel{sec:time_utility_function@cref}{{[section][6][2]2.6}{[1][13][]14}}
\@writefile{toc}{\contentsline {section}{\numberline {2.7}Programming Languages}{14}{section.2.7}\protected@file@percent }
\newlabel{sec:programming_languages}{{2.7}{14}{Programming Languages}{section.2.7}{}}
\newlabel{sec:programming_languages@cref}{{[section][7][2]2.7}{[1][14][]14}}
\newlabel{itm:java}{{2.7}{14}{Java}{section.2.7}{}}
\newlabel{itm:java@cref}{{[section][7][2]2.7}{[1][14][]14}}
\newlabel{itm:ruby}{{2.7}{14}{Ruby}{section.2.7}{}}
\newlabel{itm:ruby@cref}{{[section][7][2]2.7}{[1][14][]14}}
\newlabel{itm:c_cpp}{{2.7}{14}{C/C++}{section.2.7}{}}
\newlabel{itm:c_cpp@cref}{{[section][7][2]2.7}{[1][14][]14}}
\newlabel{itm:python}{{2.7}{15}{Python}{section.2.7}{}}
\newlabel{itm:python@cref}{{[section][7][2]2.7}{[1][14][]15}}
\@writefile{toc}{\contentsline {subsection}{\numberline {2.7.1}Graphical User Interfaces}{15}{subsection.2.7.1}\protected@file@percent }
\newlabel{ssec:guis}{{2.7.1}{15}{Graphical User Interfaces}{subsection.2.7.1}{}}
\newlabel{ssec:guis@cref}{{[subsection][1][2,7]2.7.1}{[1][15][]15}}
\newlabel{itm:tkinter}{{2.7.1}{15}{TKinter}{subsection.2.7.1}{}}
\newlabel{itm:tkinter@cref}{{[subsection][1][2,7]2.7.1}{[1][15][]15}}
\newlabel{itm:pyqt}{{2.7.1}{15}{PyQt}{subsection.2.7.1}{}}
\newlabel{itm:pyqt@cref}{{[subsection][1][2,7]2.7.1}{[1][15][]15}}
\newlabel{itm:pyside}{{2.7.1}{15}{PySide}{subsection.2.7.1}{}}
\newlabel{itm:pyside@cref}{{[subsection][1][2,7]2.7.1}{[1][15][]15}}
\@setckpt{2-1_literature_review}{
\setcounter{page}{16}
\setcounter{equation}{0}
\setcounter{enumi}{0}
\setcounter{enumii}{0}
\setcounter{enumiii}{0}
\setcounter{enumiv}{0}
\setcounter{footnote}{3}
\setcounter{mpfootnote}{0}
\setcounter{nag@c}{48}
\setcounter{part}{0}
\setcounter{chapter}{2}
\setcounter{section}{7}
\setcounter{subsection}{1}
\setcounter{subsubsection}{0}
\setcounter{paragraph}{0}
\setcounter{subparagraph}{0}
\setcounter{figure}{1}
\setcounter{table}{0}
\setcounter{tabx@nest}{0}
\setcounter{listtotal}{0}
\setcounter{listcount}{0}
\setcounter{liststart}{0}
\setcounter{liststop}{0}
\setcounter{citecount}{0}
\setcounter{citetotal}{0}
\setcounter{multicitecount}{0}
\setcounter{multicitetotal}{0}
\setcounter{instcount}{23}
\setcounter{maxnames}{3}
\setcounter{minnames}{3}
\setcounter{maxitems}{3}
\setcounter{minitems}{1}
\setcounter{citecounter}{0}
\setcounter{maxcitecounter}{0}
\setcounter{savedcitecounter}{0}
\setcounter{uniquelist}{0}
\setcounter{uniquename}{0}
\setcounter{refsection}{0}
\setcounter{refsegment}{0}
\setcounter{maxextratitle}{0}
\setcounter{maxextratitleyear}{0}
\setcounter{maxextraname}{0}
\setcounter{maxextradate}{0}
\setcounter{maxextraalpha}{0}
\setcounter{abbrvpenalty}{50}
\setcounter{highnamepenalty}{50}
\setcounter{lownamepenalty}{25}
\setcounter{maxparens}{3}
\setcounter{parenlevel}{0}
\setcounter{mincomprange}{10}
\setcounter{maxcomprange}{100000}
\setcounter{mincompwidth}{1}
\setcounter{afterword}{0}
\setcounter{savedafterword}{0}
\setcounter{annotator}{0}
\setcounter{savedannotator}{0}
\setcounter{author}{0}
\setcounter{savedauthor}{0}
\setcounter{bookauthor}{0}
\setcounter{savedbookauthor}{0}
\setcounter{commentator}{0}
\setcounter{savedcommentator}{0}
\setcounter{editor}{0}
\setcounter{savededitor}{0}
\setcounter{editora}{0}
\setcounter{savededitora}{0}
\setcounter{editorb}{0}
\setcounter{savededitorb}{0}
\setcounter{editorc}{0}
\setcounter{savededitorc}{0}
\setcounter{foreword}{0}
\setcounter{savedforeword}{0}
\setcounter{holder}{0}
\setcounter{savedholder}{0}
\setcounter{introduction}{0}
\setcounter{savedintroduction}{0}
\setcounter{namea}{0}
\setcounter{savednamea}{0}
\setcounter{nameb}{0}
\setcounter{savednameb}{0}
\setcounter{namec}{0}
\setcounter{savednamec}{0}
\setcounter{translator}{0}
\setcounter{savedtranslator}{0}
\setcounter{shortauthor}{0}
\setcounter{savedshortauthor}{0}
\setcounter{shorteditor}{0}
\setcounter{savedshorteditor}{0}
\setcounter{labelname}{0}
\setcounter{savedlabelname}{0}
\setcounter{institution}{0}
\setcounter{savedinstitution}{0}
\setcounter{lista}{0}
\setcounter{savedlista}{0}
\setcounter{listb}{0}
\setcounter{savedlistb}{0}
\setcounter{listc}{0}
\setcounter{savedlistc}{0}
\setcounter{listd}{0}
\setcounter{savedlistd}{0}
\setcounter{liste}{0}
\setcounter{savedliste}{0}
\setcounter{listf}{0}
\setcounter{savedlistf}{0}
\setcounter{location}{0}
\setcounter{savedlocation}{0}
\setcounter{organization}{0}
\setcounter{savedorganization}{0}
\setcounter{origlocation}{0}
\setcounter{savedoriglocation}{0}
\setcounter{origpublisher}{0}
\setcounter{savedorigpublisher}{0}
\setcounter{publisher}{0}
\setcounter{savedpublisher}{0}
\setcounter{language}{0}
\setcounter{savedlanguage}{0}
\setcounter{origlanguage}{0}
\setcounter{savedoriglanguage}{0}
\setcounter{pageref}{0}
\setcounter{savedpageref}{0}
\setcounter{textcitecount}{0}
\setcounter{textcitetotal}{0}
\setcounter{textcitemaxnames}{0}
\setcounter{biburlnumpenalty}{0}
\setcounter{biburlucpenalty}{0}
\setcounter{biburllcpenalty}{0}
\setcounter{smartand}{1}
\setcounter{bbx:relatedcount}{0}
\setcounter{bbx:relatedtotal}{0}
\setcounter{cbx@tempcnta}{0}
\setcounter{cbx@tempcntb}{14}
\setcounter{lstnumber}{1}
\setcounter{AlgoLine}{0}
\setcounter{algocfline}{0}
\setcounter{algocfproc}{0}
\setcounter{algocf}{0}
\setcounter{FancyVerbLine}{41}
\setcounter{linenumber}{1}
\setcounter{LN@truepage}{27}
\setcounter{FV@TrueTabGroupLevel}{0}
\setcounter{FV@TrueTabCounter}{0}
\setcounter{FV@HighlightLinesStart}{0}
\setcounter{FV@HighlightLinesStop}{0}
\setcounter{FancyVerbLineBreakLast}{0}
\setcounter{float@type}{16}
\setcounter{minted@FancyVerbLineTemp}{0}
\setcounter{minted@pygmentizecounter}{1}
\setcounter{listing}{1}
\setcounter{Item}{0}
\setcounter{Hfootnote}{3}
\setcounter{bookmark@seq@number}{0}
\setcounter{parentequation}{0}
\setcounter{su@anzahl}{0}
\setcounter{LT@tables}{0}
\setcounter{LT@chunks}{0}
\setcounter{lstlisting}{0}
\setcounter{section@level}{2}
}
