\relax 
\providecommand\hyper@newdestlabel[2]{}
\@writefile{toc}{\contentsline {chapter}{\numberline {3}System Model}{17}{chapter.3}\protected@file@percent }
\@writefile{lof}{\addvspace {10\p@ }}
\@writefile{lot}{\addvspace {10\p@ }}
\@writefile{lol}{\addvspace {10\p@ }}
\@writefile{loa}{\addvspace {10\p@ }}
\newlabel{ch:system_model}{{3}{17}{System Model}{chapter.3}{}}
\newlabel{ch:system_model@cref}{{[chapter][3][]3}{[1][17][]17}}
\@writefile{toc}{\contentsline {section}{\numberline {3.1}General Process}{17}{section.3.1}\protected@file@percent }
\newlabel{sec:general_process}{{3.1}{17}{General Process}{section.3.1}{}}
\newlabel{sec:general_process@cref}{{[section][1][3]3.1}{[1][17][]17}}
\@writefile{lof}{\contentsline {figure}{\numberline {3.1}{\ignorespaces General process flow chart.}}{18}{figure.3.1}\protected@file@percent }
\newlabel{fig:general_process}{{3.1}{18}{General process flow chart}{figure.3.1}{}}
\newlabel{fig:general_process@cref}{{[figure][1][3]3.1}{[1][18][]18}}
\@writefile{toc}{\contentsline {section}{\numberline {3.2}Task Model}{19}{section.3.2}\protected@file@percent }
\newlabel{sec:task_model}{{3.2}{19}{Task Model}{section.3.2}{}}
\newlabel{sec:task_model@cref}{{[section][2][3]3.2}{[1][18][]19}}
\@writefile{toc}{\contentsline {subsection}{\numberline {3.2.1}Raw Data Representation}{19}{subsection.3.2.1}\protected@file@percent }
\newlabel{ssec:raw_data_representation}{{3.2.1}{19}{Raw Data Representation}{subsection.3.2.1}{}}
\newlabel{ssec:raw_data_representation@cref}{{[subsection][1][3,2]3.2.1}{[1][18][]19}}
\newlabel{eqn:raw_task}{{3.1}{19}{Raw Data Representation}{equation.3.2.1}{}}
\newlabel{eqn:raw_task@cref}{{[equation][1][3]3.1}{[1][19][]19}}
\@writefile{toc}{\contentsline {subsection}{\numberline {3.2.2}Task Types}{20}{subsection.3.2.2}\protected@file@percent }
\newlabel{itm:free_tasks}{{3.2.2}{20}{Free Tasks}{subsection.3.2.2}{}}
\newlabel{itm:free_tasks@cref}{{[subsection][2][3,2]3.2.2}{[1][20][]20}}
\newlabel{itm:consumer_tasks}{{3.2.2}{20}{Consumer Tasks}{subsection.3.2.2}{}}
\newlabel{itm:consumer_tasks@cref}{{[subsection][2][3,2]3.2.2}{[1][20][]20}}
\newlabel{itm:producer_tasks}{{3.2.2}{20}{Producer Tasks}{subsection.3.2.2}{}}
\newlabel{itm:producer_tasks@cref}{{[subsection][2][3,2]3.2.2}{[1][20][]20}}
\@writefile{lof}{\contentsline {figure}{\numberline {3.2}{\ignorespaces Producer (\emph  {left one}), consumer \& producer (\emph  {middle one}) and consumer (\emph  {right one}) tasks.}}{20}{figure.3.2}\protected@file@percent }
\newlabel{fig:consumer_producer_task}{{3.2}{20}{Producer (\emph {left one}), consumer \& producer (\emph {middle one}) and consumer (\emph {right one}) tasks}{figure.3.2}{}}
\newlabel{fig:consumer_producer_task@cref}{{[figure][2][3]3.2}{[1][19][]20}}
\@writefile{toc}{\contentsline {section}{\numberline {3.3}System Complication}{21}{section.3.3}\protected@file@percent }
\newlabel{sec:system_complication}{{3.3}{21}{System Complication}{section.3.3}{}}
\newlabel{sec:system_complication@cref}{{[section][3][3]3.3}{[1][21][]21}}
\@writefile{lof}{\contentsline {figure}{\numberline {3.3}{\ignorespaces CAN bus communication network between targets.}}{22}{figure.3.3}\protected@file@percent }
\newlabel{fig:can_bus_network}{{3.3}{22}{CAN bus communication network between targets}{figure.3.3}{}}
\newlabel{fig:can_bus_network@cref}{{[figure][3][3]3.3}{[1][21][]22}}
\@writefile{lot}{\contentsline {table}{\numberline {3.1}{\ignorespaces Task set of \IeC {\textmu }MoPS\_v5.}}{23}{table.3.1}\protected@file@percent }
\newlabel{tab:umops_v5_tasks}{{3.1}{23}{Task set of µMoPS\_v5}{table.3.1}{}}
\newlabel{tab:umops_v5_tasks@cref}{{[table][1][3]3.1}{[1][21][]23}}
\@writefile{lof}{\contentsline {figure}{\numberline {3.4}{\ignorespaces Case study between two targets.}}{24}{figure.3.4}\protected@file@percent }
\newlabel{fig:simple_example}{{3.4}{24}{Case study between two targets}{figure.3.4}{}}
\newlabel{fig:simple_example@cref}{{[figure][4][3]3.4}{[1][22][]24}}
\@writefile{lof}{\contentsline {figure}{\numberline {3.5}{\ignorespaces Case study schedule time-line.}}{24}{figure.3.5}\protected@file@percent }
\newlabel{fig:simple_example_schedule}{{3.5}{24}{Case study schedule time-line}{figure.3.5}{}}
\newlabel{fig:simple_example_schedule@cref}{{[figure][5][3]3.5}{[1][23][]24}}
\@writefile{toc}{\contentsline {section}{\numberline {3.4}Data Analysis}{25}{section.3.4}\protected@file@percent }
\newlabel{sec:data_analysis}{{3.4}{25}{Data Analysis}{section.3.4}{}}
\newlabel{sec:data_analysis@cref}{{[section][4][3]3.4}{[1][24][]25}}
\newlabel{eqn:target_grouping}{{3.4}{25}{Data Analysis}{equation.3.4.4}{}}
\newlabel{eqn:target_grouping@cref}{{[equation][4][3]3.4}{[1][25][]25}}
\@writefile{toc}{\contentsline {subsection}{\numberline {3.4.1}Internal Dependencies}{25}{subsection.3.4.1}\protected@file@percent }
\newlabel{ssec:inter_dependencies}{{3.4.1}{25}{Internal Dependencies}{subsection.3.4.1}{}}
\newlabel{ssec:inter_dependencies@cref}{{[subsection][1][3,4]3.4.1}{[1][25][]25}}
\@writefile{toc}{\contentsline {subsection}{\numberline {3.4.2}Network Dependencies}{25}{subsection.3.4.2}\protected@file@percent }
\newlabel{ssec:network_dependencies}{{3.4.2}{25}{Network Dependencies}{subsection.3.4.2}{}}
\newlabel{ssec:network_dependencies@cref}{{[subsection][2][3,4]3.4.2}{[1][25][]25}}
\@writefile{loa}{\contentsline {algocf}{\numberline {1}{\ignorespaces Internal dependencies algorithm.}}{26}{algocf.1}\protected@file@percent }
\newlabel{alg:internal_dependencies}{{1}{26}{Internal Dependencies}{algocf.1}{}}
\newlabel{alg:internal_dependencies@cref}{{[algorithm][1][]1}{[1][25][]26}}
\@writefile{toc}{\contentsline {subsubsection}{\nonumberline Consumer Dependencies}{26}{section*.7}\protected@file@percent }
\newlabel{sssec:consumer_dependencies}{{3.4.2}{26}{Consumer Dependencies}{section*.7}{}}
\newlabel{sssec:consumer_dependencies@cref}{{[subsection][2][3,4]3.4.2}{[1][26][]26}}
\@writefile{loa}{\contentsline {algocf}{\numberline {2}{\ignorespaces Internal \& consumer dependencies algorithm.}}{27}{algocf.2}\protected@file@percent }
\newlabel{alg:internal_consumer_dependencies}{{2}{27}{Consumer Dependencies}{algocf.2}{}}
\newlabel{alg:internal_consumer_dependencies@cref}{{[algorithm][2][]2}{[1][26][]27}}
\@writefile{toc}{\contentsline {subsubsection}{\nonumberline Producer Dependencies}{27}{section*.8}\protected@file@percent }
\newlabel{sssec:producer_dependencies}{{3.4.2}{27}{Producer Dependencies}{section*.8}{}}
\newlabel{sssec:producer_dependencies@cref}{{[subsection][2][3,4]3.4.2}{[1][26][]27}}
\@writefile{loa}{\contentsline {algocf}{\numberline {3}{\ignorespaces Producer dependencies algorithm.}}{28}{algocf.3}\protected@file@percent }
\newlabel{alg:producer_dependencies}{{3}{28}{Producer Dependencies}{algocf.3}{}}
\newlabel{alg:producer_dependencies@cref}{{[algorithm][3][]3}{[1][28][]28}}
\@writefile{toc}{\contentsline {subsubsection}{\nonumberline Transmission Time Computation}{28}{section*.9}\protected@file@percent }
\newlabel{sssec:transmission_time_computation}{{3.4.2}{28}{Transmission Time Computation}{section*.9}{}}
\newlabel{sssec:transmission_time_computation@cref}{{[subsection][2][3,4]3.4.2}{[1][28][]28}}
\@writefile{loa}{\contentsline {algocf}{\numberline {4}{\ignorespaces Producer dependencies \& payload recognizing algorithm.}}{29}{algocf.4}\protected@file@percent }
\newlabel{alg:producer_dependencies_payload}{{4}{29}{Transmission Time Computation}{algocf.4}{}}
\newlabel{alg:producer_dependencies_payload@cref}{{[algorithm][4][]4}{[1][29][]29}}
\@writefile{lot}{\contentsline {table}{\numberline {3.2}{\ignorespaces Variables' representation in \emph  {bytes}.}}{30}{table.3.2}\protected@file@percent }
\newlabel{tab:variables_representation}{{3.2}{30}{Variables' representation in \emph {bytes}}{table.3.2}{}}
\newlabel{tab:variables_representation@cref}{{[table][2][3]3.2}{[1][30][]30}}
\@writefile{toc}{\contentsline {section}{\numberline {3.5}Time-Line Model}{30}{section.3.5}\protected@file@percent }
\newlabel{sec:timeline_model}{{3.5}{30}{Time-Line Model}{section.3.5}{}}
\newlabel{sec:timeline_model@cref}{{[section][5][3]3.5}{[1][30][]30}}
\@writefile{toc}{\contentsline {subsection}{\numberline {3.5.1}Time Slots}{31}{subsection.3.5.1}\protected@file@percent }
\newlabel{ssec:time_slots}{{3.5.1}{31}{Time Slots}{subsection.3.5.1}{}}
\newlabel{ssec:time_slots@cref}{{[subsection][1][3,5]3.5.1}{[1][30][]31}}
\newlabel{itm:slot_buffer}{{3.5.1}{31}{Slot Buffer}{subsection.3.5.1}{}}
\newlabel{itm:slot_buffer@cref}{{[subsection][1][3,5]3.5.1}{[1][31][]31}}
\@writefile{toc}{\contentsline {subsection}{\numberline {3.5.2}Task Delays}{31}{subsection.3.5.2}\protected@file@percent }
\newlabel{ssec:task_delays}{{3.5.2}{31}{Task Delays}{subsection.3.5.2}{}}
\newlabel{ssec:task_delays@cref}{{[subsection][2][3,5]3.5.2}{[1][31][]31}}
\@writefile{toc}{\contentsline {section}{\numberline {3.6}Task Set Transformation}{32}{section.3.6}\protected@file@percent }
\newlabel{sec:task_set_transformation}{{3.6}{32}{Task Set Transformation}{section.3.6}{}}
\newlabel{sec:task_set_transformation@cref}{{[section][6][3]3.6}{[1][32][]32}}
\newlabel{eqn:task_set_formulated}{{3.8}{32}{Task Set Transformation}{equation.3.6.8}{}}
\newlabel{eqn:task_set_formulated@cref}{{[equation][8][3]3.8}{[1][32][]32}}
\newlabel{eqn:formulated_task}{{3.9}{32}{Task Set Transformation}{equation.3.6.9}{}}
\newlabel{eqn:formulated_task@cref}{{[equation][9][3]3.9}{[1][32][]32}}
\@writefile{toc}{\contentsline {section}{\numberline {3.7}Optimization Problem}{32}{section.3.7}\protected@file@percent }
\newlabel{sec:optimization_problem}{{3.7}{32}{Optimization Problem}{section.3.7}{}}
\newlabel{sec:optimization_problem@cref}{{[section][7][3]3.7}{[1][32][]32}}
\newlabel{eqn:offset_deadline_relation}{{3.10}{33}{Optimization Problem}{equation.3.7.10}{}}
\newlabel{eqn:offset_deadline_relation@cref}{{[equation][10][3]3.10}{[1][32][]33}}
\@writefile{toc}{\contentsline {subsection}{\numberline {3.7.1}Period Bound}{33}{subsection.3.7.1}\protected@file@percent }
\newlabel{ssec:period_bound}{{3.7.1}{33}{Period Bound}{subsection.3.7.1}{}}
\newlabel{ssec:period_bound@cref}{{[subsection][1][3,7]3.7.1}{[1][33][]33}}
\@writefile{loa}{\contentsline {algocf}{\numberline {5}{\ignorespaces Period $T$ upper bound algorithm.}}{33}{algocf.5}\protected@file@percent }
\newlabel{alg:period_bound}{{5}{33}{Period Bound}{algocf.5}{}}
\newlabel{alg:period_bound@cref}{{[algorithm][5][]5}{[1][33][]33}}
\@writefile{toc}{\contentsline {subsection}{\numberline {3.7.2}Objective Function}{34}{subsection.3.7.2}\protected@file@percent }
\newlabel{ssec:objective_function}{{3.7.2}{34}{Objective Function}{subsection.3.7.2}{}}
\newlabel{ssec:objective_function@cref}{{[subsection][2][3,7]3.7.2}{[1][33][]34}}
\@writefile{toc}{\contentsline {subsection}{\numberline {3.7.3}Inequality Constraints}{34}{subsection.3.7.3}\protected@file@percent }
\newlabel{ssec:inequality_constraints}{{3.7.3}{34}{Inequality Constraints}{subsection.3.7.3}{}}
\newlabel{ssec:inequality_constraints@cref}{{[subsection][3][3,7]3.7.3}{[1][34][]34}}
\@writefile{lof}{\contentsline {figure}{\numberline {3.6}{\ignorespaces CPU exclusivity.}}{34}{figure.3.6}\protected@file@percent }
\newlabel{fig:cpu_exclusivity}{{3.6}{34}{CPU exclusivity}{figure.3.6}{}}
\newlabel{fig:cpu_exclusivity@cref}{{[figure][6][3]3.6}{[1][34][]34}}
\newlabel{eqn:cpu_exclusivity_constraints_1}{{3.13}{34}{Inequality Constraints}{equation.3.7.13}{}}
\newlabel{eqn:cpu_exclusivity_constraints_1@cref}{{[equation][13][3]3.13}{[1][34][]34}}
\newlabel{eqn:cpu_exclusivity_constraints_2}{{3.14}{34}{Inequality Constraints}{equation.3.7.14}{}}
\newlabel{eqn:cpu_exclusivity_constraints_2@cref}{{[equation][14][3]3.14}{[1][34][]34}}
\newlabel{eqn:slot_exclusivity_constraints_1}{{3.15}{35}{Inequality Constraints}{equation.3.7.15}{}}
\newlabel{eqn:slot_exclusivity_constraints_1@cref}{{[equation][15][3]3.15}{[1][35][]35}}
\newlabel{eqn:slot_exclusivity_constraints_2}{{3.16}{35}{Inequality Constraints}{equation.3.7.16}{}}
\newlabel{eqn:slot_exclusivity_constraints_2@cref}{{[equation][16][3]3.16}{[1][35][]35}}
\newlabel{eqn:slot_surpassing_constraints_1}{{3.17}{35}{Inequality Constraints}{equation.3.7.17}{}}
\newlabel{eqn:slot_surpassing_constraints_1@cref}{{[equation][17][3]3.17}{[1][35][]35}}
\newlabel{eqn:slot_surpassing_constraints_2}{{3.18}{35}{Inequality Constraints}{equation.3.7.18}{}}
\newlabel{eqn:slot_surpassing_constraints_2@cref}{{[equation][18][3]3.18}{[1][35][]35}}
\@setckpt{2-2_system_model}{
\setcounter{page}{37}
\setcounter{equation}{20}
\setcounter{enumi}{0}
\setcounter{enumii}{0}
\setcounter{enumiii}{0}
\setcounter{enumiv}{0}
\setcounter{footnote}{0}
\setcounter{mpfootnote}{0}
\setcounter{nag@c}{48}
\setcounter{part}{0}
\setcounter{chapter}{3}
\setcounter{section}{7}
\setcounter{subsection}{3}
\setcounter{subsubsection}{0}
\setcounter{paragraph}{0}
\setcounter{subparagraph}{0}
\setcounter{figure}{6}
\setcounter{table}{2}
\setcounter{tabx@nest}{0}
\setcounter{listtotal}{0}
\setcounter{listcount}{0}
\setcounter{liststart}{0}
\setcounter{liststop}{0}
\setcounter{citecount}{0}
\setcounter{citetotal}{0}
\setcounter{multicitecount}{0}
\setcounter{multicitetotal}{0}
\setcounter{instcount}{25}
\setcounter{maxnames}{3}
\setcounter{minnames}{3}
\setcounter{maxitems}{3}
\setcounter{minitems}{1}
\setcounter{citecounter}{0}
\setcounter{maxcitecounter}{0}
\setcounter{savedcitecounter}{0}
\setcounter{uniquelist}{0}
\setcounter{uniquename}{0}
\setcounter{refsection}{0}
\setcounter{refsegment}{0}
\setcounter{maxextratitle}{0}
\setcounter{maxextratitleyear}{0}
\setcounter{maxextraname}{0}
\setcounter{maxextradate}{0}
\setcounter{maxextraalpha}{0}
\setcounter{abbrvpenalty}{50}
\setcounter{highnamepenalty}{50}
\setcounter{lownamepenalty}{25}
\setcounter{maxparens}{3}
\setcounter{parenlevel}{0}
\setcounter{mincomprange}{10}
\setcounter{maxcomprange}{100000}
\setcounter{mincompwidth}{1}
\setcounter{afterword}{0}
\setcounter{savedafterword}{0}
\setcounter{annotator}{0}
\setcounter{savedannotator}{0}
\setcounter{author}{0}
\setcounter{savedauthor}{0}
\setcounter{bookauthor}{0}
\setcounter{savedbookauthor}{0}
\setcounter{commentator}{0}
\setcounter{savedcommentator}{0}
\setcounter{editor}{0}
\setcounter{savededitor}{0}
\setcounter{editora}{0}
\setcounter{savededitora}{0}
\setcounter{editorb}{0}
\setcounter{savededitorb}{0}
\setcounter{editorc}{0}
\setcounter{savededitorc}{0}
\setcounter{foreword}{0}
\setcounter{savedforeword}{0}
\setcounter{holder}{0}
\setcounter{savedholder}{0}
\setcounter{introduction}{0}
\setcounter{savedintroduction}{0}
\setcounter{namea}{0}
\setcounter{savednamea}{0}
\setcounter{nameb}{0}
\setcounter{savednameb}{0}
\setcounter{namec}{0}
\setcounter{savednamec}{0}
\setcounter{translator}{0}
\setcounter{savedtranslator}{0}
\setcounter{shortauthor}{0}
\setcounter{savedshortauthor}{0}
\setcounter{shorteditor}{0}
\setcounter{savedshorteditor}{0}
\setcounter{labelname}{0}
\setcounter{savedlabelname}{0}
\setcounter{institution}{0}
\setcounter{savedinstitution}{0}
\setcounter{lista}{0}
\setcounter{savedlista}{0}
\setcounter{listb}{0}
\setcounter{savedlistb}{0}
\setcounter{listc}{0}
\setcounter{savedlistc}{0}
\setcounter{listd}{0}
\setcounter{savedlistd}{0}
\setcounter{liste}{0}
\setcounter{savedliste}{0}
\setcounter{listf}{0}
\setcounter{savedlistf}{0}
\setcounter{location}{0}
\setcounter{savedlocation}{0}
\setcounter{organization}{0}
\setcounter{savedorganization}{0}
\setcounter{origlocation}{0}
\setcounter{savedoriglocation}{0}
\setcounter{origpublisher}{0}
\setcounter{savedorigpublisher}{0}
\setcounter{publisher}{0}
\setcounter{savedpublisher}{0}
\setcounter{language}{0}
\setcounter{savedlanguage}{0}
\setcounter{origlanguage}{0}
\setcounter{savedoriglanguage}{0}
\setcounter{pageref}{0}
\setcounter{savedpageref}{0}
\setcounter{textcitecount}{0}
\setcounter{textcitetotal}{0}
\setcounter{textcitemaxnames}{0}
\setcounter{biburlnumpenalty}{0}
\setcounter{biburlucpenalty}{0}
\setcounter{biburllcpenalty}{0}
\setcounter{smartand}{1}
\setcounter{bbx:relatedcount}{0}
\setcounter{bbx:relatedtotal}{0}
\setcounter{cbx@tempcnta}{0}
\setcounter{cbx@tempcntb}{16}
\setcounter{lstnumber}{1}
\setcounter{AlgoLine}{0}
\setcounter{algocfline}{5}
\setcounter{algocfproc}{5}
\setcounter{algocf}{5}
\setcounter{FancyVerbLine}{41}
\setcounter{linenumber}{1}
\setcounter{LN@truepage}{48}
\setcounter{FV@TrueTabGroupLevel}{0}
\setcounter{FV@TrueTabCounter}{0}
\setcounter{FV@HighlightLinesStart}{0}
\setcounter{FV@HighlightLinesStop}{0}
\setcounter{FancyVerbLineBreakLast}{0}
\setcounter{float@type}{16}
\setcounter{minted@FancyVerbLineTemp}{0}
\setcounter{minted@pygmentizecounter}{1}
\setcounter{listing}{0}
\setcounter{Item}{0}
\setcounter{Hfootnote}{3}
\setcounter{bookmark@seq@number}{0}
\setcounter{parentequation}{0}
\setcounter{su@anzahl}{0}
\setcounter{LT@tables}{0}
\setcounter{LT@chunks}{0}
\setcounter{lstlisting}{0}
\setcounter{section@level}{2}
}
