\relax 
\providecommand\hyper@newdestlabel[2]{}
\@writefile{toc}{\contentsline {chapter}{\numberline {4}Implementation}{37}{chapter.4}\protected@file@percent }
\@writefile{lof}{\addvspace {10\p@ }}
\@writefile{lot}{\addvspace {10\p@ }}
\@writefile{lol}{\addvspace {10\p@ }}
\@writefile{loa}{\addvspace {10\p@ }}
\newlabel{ch:implementation}{{4}{37}{Implementation}{chapter.4}{}}
\newlabel{ch:implementation@cref}{{[chapter][4][]4}{[1][37][]37}}
\@writefile{toc}{\contentsline {section}{\numberline {4.1}Software Architecture}{37}{section.4.1}\protected@file@percent }
\newlabel{sec:software_architecture}{{4.1}{37}{Software Architecture}{section.4.1}{}}
\newlabel{sec:software_architecture@cref}{{[section][1][4]4.1}{[1][37][]37}}
\@writefile{lof}{\contentsline {figure}{\numberline {4.1}{\ignorespaces \gls {SW} architecture modules.}}{39}{figure.4.1}\protected@file@percent }
\newlabel{fig:sw_architecture_modules}{{4.1}{39}{\gls {SW} architecture modules}{figure.4.1}{}}
\newlabel{fig:sw_architecture_modules@cref}{{[figure][1][4]4.1}{[1][38][]39}}
\@writefile{toc}{\contentsline {section}{\numberline {4.2}User Interface}{39}{section.4.2}\protected@file@percent }
\@writefile{toc}{\contentsline {subsection}{\numberline {4.2.1}Targets Tree}{39}{subsection.4.2.1}\protected@file@percent }
\newlabel{ssec:ui_target_tree}{{4.2.1}{39}{Targets Tree}{subsection.4.2.1}{}}
\newlabel{ssec:ui_target_tree@cref}{{[subsection][1][4,2]4.2.1}{[1][39][]39}}
\@writefile{lof}{\contentsline {figure}{\numberline {4.2}{\ignorespaces Targets tree window.}}{40}{figure.4.2}\protected@file@percent }
\newlabel{fig:targets_tree}{{4.2}{40}{Targets tree window}{figure.4.2}{}}
\newlabel{fig:targets_tree@cref}{{[figure][2][4]4.2}{[1][39][]40}}
\@writefile{toc}{\contentsline {subsubsection}{\nonumberline New Target Dialog}{41}{section*.10}\protected@file@percent }
\newlabel{sssec:new_target_dialog}{{4.2.1}{41}{New Target Dialog}{section*.10}{}}
\newlabel{sssec:new_target_dialog@cref}{{[subsection][1][4,2]4.2.1}{[1][41][]41}}
\@writefile{lof}{\contentsline {figure}{\numberline {4.3}{\ignorespaces New target dialog.}}{41}{figure.4.3}\protected@file@percent }
\newlabel{fig:new_target_dialog}{{4.3}{41}{New target dialog}{figure.4.3}{}}
\newlabel{fig:new_target_dialog@cref}{{[figure][3][4]4.3}{[1][41][]41}}
\@writefile{toc}{\contentsline {subsubsection}{\nonumberline Modify Target Dialog}{42}{section*.11}\protected@file@percent }
\newlabel{sssec:modify_target_dialog}{{4.2.1}{42}{Modify Target Dialog}{section*.11}{}}
\newlabel{sssec:modify_target_dialog@cref}{{[subsection][1][4,2]4.2.1}{[1][42][]42}}
\@writefile{lof}{\contentsline {figure}{\numberline {4.4}{\ignorespaces Modify target dialog.}}{42}{figure.4.4}\protected@file@percent }
\newlabel{fig:modify_target_dialog}{{4.4}{42}{Modify target dialog}{figure.4.4}{}}
\newlabel{fig:modify_target_dialog@cref}{{[figure][4][4]4.4}{[1][42][]42}}
\@writefile{toc}{\contentsline {subsection}{\numberline {4.2.2}Builder View}{43}{subsection.4.2.2}\protected@file@percent }
\newlabel{ssec:ux_builder_view}{{4.2.2}{43}{Builder View}{subsection.4.2.2}{}}
\newlabel{ssec:ux_builder_view@cref}{{[subsection][2][4,2]4.2.2}{[1][42][]43}}
\@writefile{lof}{\contentsline {figure}{\numberline {4.5}{\ignorespaces Builder view window.}}{43}{figure.4.5}\protected@file@percent }
\newlabel{fig:builder_view_window}{{4.5}{43}{Builder view window}{figure.4.5}{}}
\newlabel{fig:builder_view_window@cref}{{[figure][5][4]4.5}{[1][42][]43}}
\@writefile{toc}{\contentsline {subsubsection}{\nonumberline Task Item}{43}{section*.12}\protected@file@percent }
\newlabel{sssec:task_item}{{4.2.2}{43}{Task Item}{section*.12}{}}
\newlabel{sssec:task_item@cref}{{[subsection][2][4,2]4.2.2}{[1][43][]43}}
\@writefile{toc}{\contentsline {subsubsection}{\nonumberline Modify Parameters Dialog}{44}{section*.13}\protected@file@percent }
\newlabel{sssec:modify_parameters_dialog}{{4.2.2}{44}{Modify Parameters Dialog}{section*.13}{}}
\newlabel{sssec:modify_parameters_dialog@cref}{{[subsection][2][4,2]4.2.2}{[1][44][]44}}
\@writefile{lof}{\contentsline {figure}{\numberline {4.6}{\ignorespaces Modify parameters dialog.}}{45}{figure.4.6}\protected@file@percent }
\newlabel{fig:modify_parameters_dialog}{{4.6}{45}{Modify parameters dialog}{figure.4.6}{}}
\newlabel{fig:modify_parameters_dialog@cref}{{[figure][6][4]4.6}{[1][44][]45}}
\@writefile{toc}{\contentsline {subsubsection}{\nonumberline Connection Item}{45}{section*.14}\protected@file@percent }
\newlabel{sssec:connection_item}{{4.2.2}{45}{Connection Item}{section*.14}{}}
\newlabel{sssec:connection_item@cref}{{[subsection][2][4,2]4.2.2}{[1][45][]45}}
\@writefile{toc}{\contentsline {subsection}{\numberline {4.2.3}Scheduler View}{45}{subsection.4.2.3}\protected@file@percent }
\newlabel{ssec:ux_scheduler_view}{{4.2.3}{45}{Scheduler View}{subsection.4.2.3}{}}
\newlabel{ssec:ux_scheduler_view@cref}{{[subsection][3][4,2]4.2.3}{[1][45][]45}}
\@writefile{lof}{\contentsline {figure}{\numberline {4.7}{\ignorespaces Schedule default view window.}}{46}{figure.4.7}\protected@file@percent }
\newlabel{fig:schedule_default_view_window}{{4.7}{46}{Schedule default view window}{figure.4.7}{}}
\newlabel{fig:schedule_default_view_window@cref}{{[figure][7][4]4.7}{[1][45][]46}}
\@writefile{toc}{\contentsline {subsubsection}{\nonumberline Schedule Table}{46}{section*.15}\protected@file@percent }
\newlabel{sssec:schedule_table}{{4.2.3}{46}{Schedule Table}{section*.15}{}}
\newlabel{sssec:schedule_table@cref}{{[subsection][3][4,2]4.2.3}{[1][46][]46}}
\@writefile{toc}{\contentsline {subsubsection}{\nonumberline Schedule Time-line}{47}{section*.16}\protected@file@percent }
\newlabel{sssec:schedule_timeline}{{4.2.3}{47}{Schedule Time-line}{section*.16}{}}
\newlabel{sssec:schedule_timeline@cref}{{[subsection][3][4,2]4.2.3}{[1][47][]47}}
\@writefile{lof}{\contentsline {figure}{\numberline {4.8}{\ignorespaces Schedule view window.}}{47}{figure.4.8}\protected@file@percent }
\newlabel{fig:schedule_view_window}{{4.8}{47}{Schedule view window}{figure.4.8}{}}
\newlabel{fig:schedule_view_window@cref}{{[figure][8][4]4.8}{[1][47][]47}}
\@writefile{toc}{\contentsline {subsection}{\numberline {4.2.4}Prompt View}{48}{subsection.4.2.4}\protected@file@percent }
\newlabel{ssec:ux_prompt_view}{{4.2.4}{48}{Prompt View}{subsection.4.2.4}{}}
\newlabel{ssec:ux_prompt_view@cref}{{[subsection][4][4,2]4.2.4}{[1][47][]48}}
\@writefile{lof}{\contentsline {figure}{\numberline {4.9}{\ignorespaces Prompt view window.}}{48}{figure.4.9}\protected@file@percent }
\newlabel{fig:prompt_view_window}{{4.9}{48}{Prompt view window}{figure.4.9}{}}
\newlabel{fig:prompt_view_window@cref}{{[figure][9][4]4.9}{[1][47][]48}}
\@writefile{toc}{\contentsline {subsection}{\numberline {4.2.5}Main Window}{48}{subsection.4.2.5}\protected@file@percent }
\newlabel{ssec:ux_main_window}{{4.2.5}{48}{Main Window}{subsection.4.2.5}{}}
\newlabel{ssec:ux_main_window@cref}{{[subsection][5][4,2]4.2.5}{[1][48][]48}}
\@writefile{lof}{\contentsline {figure}{\numberline {4.10}{\ignorespaces Main window.}}{49}{figure.4.10}\protected@file@percent }
\newlabel{fig:main_window}{{4.10}{49}{Main window}{figure.4.10}{}}
\newlabel{fig:main_window@cref}{{[figure][10][4]4.10}{[1][48][]49}}
\@writefile{toc}{\contentsline {subsubsection}{\nonumberline Preference Settings Dialog}{49}{section*.17}\protected@file@percent }
\newlabel{sssec:preference_settings_dialog}{{4.2.5}{49}{Preference Settings Dialog}{section*.17}{}}
\newlabel{sssec:preference_settings_dialog@cref}{{[subsection][5][4,2]4.2.5}{[1][49][]49}}
\@writefile{lof}{\contentsline {figure}{\numberline {4.11}{\ignorespaces Preference settings dialog.}}{50}{figure.4.11}\protected@file@percent }
\newlabel{fig:preference_settings_dialog}{{4.11}{50}{Preference settings dialog}{figure.4.11}{}}
\newlabel{fig:preference_settings_dialog@cref}{{[figure][11][4]4.11}{[1][49][]50}}
\@writefile{toc}{\contentsline {subsubsection}{\nonumberline Display Settings Dialog}{50}{section*.18}\protected@file@percent }
\newlabel{sssec:display_settings_dialog}{{4.2.5}{50}{Display Settings Dialog}{section*.18}{}}
\newlabel{sssec:display_settings_dialog@cref}{{[subsection][5][4,2]4.2.5}{[1][50][]50}}
\@writefile{lof}{\contentsline {figure}{\numberline {4.12}{\ignorespaces Display settings dialog.}}{51}{figure.4.12}\protected@file@percent }
\newlabel{fig:display_settings_dialog}{{4.12}{51}{Display settings dialog}{figure.4.12}{}}
\newlabel{fig:display_settings_dialog@cref}{{[figure][12][4]4.12}{[1][50][]51}}
\@writefile{toc}{\contentsline {subsubsection}{\nonumberline Help Browser}{51}{section*.19}\protected@file@percent }
\newlabel{sssec:help_browser}{{4.2.5}{51}{Help Browser}{section*.19}{}}
\newlabel{sssec:help_browser@cref}{{[subsection][5][4,2]4.2.5}{[1][51][]51}}
\@writefile{toc}{\contentsline {section}{\numberline {4.3}Core Modules}{51}{section.4.3}\protected@file@percent }
\@writefile{lof}{\contentsline {figure}{\numberline {4.13}{\ignorespaces Help browser dialog.}}{52}{figure.4.13}\protected@file@percent }
\newlabel{fig:help_browser_dialog}{{4.13}{52}{Help browser dialog}{figure.4.13}{}}
\newlabel{fig:help_browser_dialog@cref}{{[figure][13][4]4.13}{[1][51][]52}}
\@writefile{toc}{\contentsline {subsection}{\numberline {4.3.1}Targets Core}{52}{subsection.4.3.1}\protected@file@percent }
\newlabel{ssec:core_targets}{{4.3.1}{52}{Targets Core}{subsection.4.3.1}{}}
\newlabel{ssec:core_targets@cref}{{[subsection][1][4,3]4.3.1}{[1][52][]52}}
\@writefile{toc}{\contentsline {subsection}{\numberline {4.3.2}Builder Core}{54}{subsection.4.3.2}\protected@file@percent }
\newlabel{ssec:core_builder}{{4.3.2}{54}{Builder Core}{subsection.4.3.2}{}}
\newlabel{ssec:core_builder@cref}{{[subsection][2][4,3]4.3.2}{[1][53][]54}}
\@writefile{toc}{\contentsline {subsection}{\numberline {4.3.3}Scheduler Core}{55}{subsection.4.3.3}\protected@file@percent }
\newlabel{ssec:core_scheduler}{{4.3.3}{55}{Scheduler Core}{subsection.4.3.3}{}}
\newlabel{ssec:core_scheduler@cref}{{[subsection][3][4,3]4.3.3}{[1][55][]55}}
\@writefile{toc}{\contentsline {subsection}{\numberline {4.3.4}Sanity Checks}{56}{subsection.4.3.4}\protected@file@percent }
\newlabel{ssec:sanity_checks}{{4.3.4}{56}{Sanity Checks}{subsection.4.3.4}{}}
\newlabel{ssec:sanity_checks@cref}{{[subsection][4][4,3]4.3.4}{[1][55][]56}}
\@writefile{toc}{\contentsline {subsection}{\numberline {4.3.5}Main Actions}{57}{subsection.4.3.5}\protected@file@percent }
\newlabel{ssec:core_main_actions}{{4.3.5}{57}{Main Actions}{subsection.4.3.5}{}}
\newlabel{ssec:core_main_actions@cref}{{[subsection][5][4,3]4.3.5}{[1][57][]57}}
\@writefile{toc}{\contentsline {subsubsection}{\nonumberline File Menu}{57}{section*.20}\protected@file@percent }
\newlabel{sssec:file_menu}{{4.3.5}{57}{File Menu}{section*.20}{}}
\newlabel{sssec:file_menu@cref}{{[subsection][5][4,3]4.3.5}{[1][57][]57}}
\@writefile{lof}{\contentsline {figure}{\numberline {4.14}{\ignorespaces Main actions distributed over the category menus.}}{58}{figure.4.14}\protected@file@percent }
\newlabel{fig:main_actions}{{4.14}{58}{Main actions distributed over the category menus}{figure.4.14}{}}
\newlabel{fig:main_actions@cref}{{[figure][14][4]4.14}{[1][57][]58}}
\@writefile{toc}{\contentsline {subsubsection}{\nonumberline Edit Menu}{59}{section*.21}\protected@file@percent }
\newlabel{sssec:edit_menu}{{4.3.5}{59}{Edit Menu}{section*.21}{}}
\newlabel{sssec:edit_menu@cref}{{[subsection][5][4,3]4.3.5}{[1][58][]59}}
\@writefile{toc}{\contentsline {subsubsection}{\nonumberline View Menu}{59}{section*.22}\protected@file@percent }
\newlabel{sssec:view_menu}{{4.3.5}{59}{View Menu}{section*.22}{}}
\newlabel{sssec:view_menu@cref}{{[subsection][5][4,3]4.3.5}{[1][59][]59}}
\@writefile{toc}{\contentsline {subsubsection}{\nonumberline Insert Menu}{59}{section*.23}\protected@file@percent }
\newlabel{sssec:insert_menu}{{4.3.5}{59}{Insert Menu}{section*.23}{}}
\newlabel{sssec:insert_menu@cref}{{[subsection][5][4,3]4.3.5}{[1][59][]59}}
\@writefile{toc}{\contentsline {subsubsection}{\nonumberline Help Menu}{59}{section*.24}\protected@file@percent }
\newlabel{sssec:help_menu}{{4.3.5}{59}{Help Menu}{section*.24}{}}
\newlabel{sssec:help_menu@cref}{{[subsection][5][4,3]4.3.5}{[1][59][]59}}
\@writefile{toc}{\contentsline {section}{\numberline {4.4}Data Base}{60}{section.4.4}\protected@file@percent }
\newlabel{sec:data_base}{{4.4}{60}{Data Base}{section.4.4}{}}
\newlabel{sec:data_base@cref}{{[section][4][4]4.4}{[1][59][]60}}
\@writefile{toc}{\contentsline {subsection}{\numberline {4.4.1}Configuration Files}{60}{subsection.4.4.1}\protected@file@percent }
\newlabel{ssec:configuration_files}{{4.4.1}{60}{Configuration Files}{subsection.4.4.1}{}}
\newlabel{ssec:configuration_files@cref}{{[subsection][1][4,4]4.4.1}{[1][60][]60}}
\@writefile{toc}{\contentsline {subsection}{\numberline {4.4.2}Target Description}{60}{subsection.4.4.2}\protected@file@percent }
\newlabel{ssec:target_description}{{4.4.2}{60}{Target Description}{subsection.4.4.2}{}}
\newlabel{ssec:target_description@cref}{{[subsection][2][4,4]4.4.2}{[1][60][]60}}
\@writefile{toc}{\contentsline {subsection}{\numberline {4.4.3}Project Description File}{61}{subsection.4.4.3}\protected@file@percent }
\newlabel{ssec:project_description_file}{{4.4.3}{61}{Project Description File}{subsection.4.4.3}{}}
\newlabel{ssec:project_description_file@cref}{{[subsection][3][4,4]4.4.3}{[1][60][]61}}
\@writefile{toc}{\contentsline {subsection}{\numberline {4.4.4}Logging}{61}{subsection.4.4.4}\protected@file@percent }
\newlabel{ssec:logging}{{4.4.4}{61}{Logging}{subsection.4.4.4}{}}
\newlabel{ssec:logging@cref}{{[subsection][4][4,4]4.4.4}{[1][61][]61}}
\newlabel{eqn:detailed_formater}{{4.4.4}{61}{Logging}{subsection.4.4.4}{}}
\newlabel{eqn:detailed_formater@cref}{{[subsection][4][4,4]4.4.4}{[1][61][]61}}
\newlabel{eqn:simple_formater}{{4.4.4}{61}{Logging}{subsection.4.4.4}{}}
\newlabel{eqn:simple_formater@cref}{{[subsection][4][4,4]4.4.4}{[1][61][]61}}
\@writefile{toc}{\contentsline {subsection}{\numberline {4.4.5}Schedule Description}{62}{subsection.4.4.5}\protected@file@percent }
\newlabel{ssec:schedule_description}{{4.4.5}{62}{Schedule Description}{subsection.4.4.5}{}}
\newlabel{ssec:schedule_description@cref}{{[subsection][5][4,4]4.4.5}{[1][61][]62}}
\@writefile{toc}{\contentsline {subsection}{\numberline {4.4.6}Schedule Script}{62}{subsection.4.4.6}\protected@file@percent }
\newlabel{ssec:schedule_script}{{4.4.6}{62}{Schedule Script}{subsection.4.4.6}{}}
\newlabel{ssec:schedule_script@cref}{{[subsection][6][4,4]4.4.6}{[1][62][]62}}
\@setckpt{2-3_implementation}{
\setcounter{page}{63}
\setcounter{equation}{0}
\setcounter{enumi}{0}
\setcounter{enumii}{0}
\setcounter{enumiii}{0}
\setcounter{enumiv}{0}
\setcounter{footnote}{2}
\setcounter{mpfootnote}{0}
\setcounter{nag@c}{48}
\setcounter{part}{0}
\setcounter{chapter}{4}
\setcounter{section}{4}
\setcounter{subsection}{6}
\setcounter{subsubsection}{0}
\setcounter{paragraph}{0}
\setcounter{subparagraph}{0}
\setcounter{figure}{14}
\setcounter{table}{0}
\setcounter{tabx@nest}{0}
\setcounter{listtotal}{0}
\setcounter{listcount}{0}
\setcounter{liststart}{0}
\setcounter{liststop}{0}
\setcounter{citecount}{0}
\setcounter{citetotal}{0}
\setcounter{multicitecount}{0}
\setcounter{multicitetotal}{0}
\setcounter{instcount}{25}
\setcounter{maxnames}{3}
\setcounter{minnames}{3}
\setcounter{maxitems}{3}
\setcounter{minitems}{1}
\setcounter{citecounter}{0}
\setcounter{maxcitecounter}{0}
\setcounter{savedcitecounter}{0}
\setcounter{uniquelist}{0}
\setcounter{uniquename}{0}
\setcounter{refsection}{0}
\setcounter{refsegment}{0}
\setcounter{maxextratitle}{0}
\setcounter{maxextratitleyear}{0}
\setcounter{maxextraname}{0}
\setcounter{maxextradate}{0}
\setcounter{maxextraalpha}{0}
\setcounter{abbrvpenalty}{50}
\setcounter{highnamepenalty}{50}
\setcounter{lownamepenalty}{25}
\setcounter{maxparens}{3}
\setcounter{parenlevel}{0}
\setcounter{mincomprange}{10}
\setcounter{maxcomprange}{100000}
\setcounter{mincompwidth}{1}
\setcounter{afterword}{0}
\setcounter{savedafterword}{0}
\setcounter{annotator}{0}
\setcounter{savedannotator}{0}
\setcounter{author}{0}
\setcounter{savedauthor}{0}
\setcounter{bookauthor}{0}
\setcounter{savedbookauthor}{0}
\setcounter{commentator}{0}
\setcounter{savedcommentator}{0}
\setcounter{editor}{0}
\setcounter{savededitor}{0}
\setcounter{editora}{0}
\setcounter{savededitora}{0}
\setcounter{editorb}{0}
\setcounter{savededitorb}{0}
\setcounter{editorc}{0}
\setcounter{savededitorc}{0}
\setcounter{foreword}{0}
\setcounter{savedforeword}{0}
\setcounter{holder}{0}
\setcounter{savedholder}{0}
\setcounter{introduction}{0}
\setcounter{savedintroduction}{0}
\setcounter{namea}{0}
\setcounter{savednamea}{0}
\setcounter{nameb}{0}
\setcounter{savednameb}{0}
\setcounter{namec}{0}
\setcounter{savednamec}{0}
\setcounter{translator}{0}
\setcounter{savedtranslator}{0}
\setcounter{shortauthor}{0}
\setcounter{savedshortauthor}{0}
\setcounter{shorteditor}{0}
\setcounter{savedshorteditor}{0}
\setcounter{labelname}{0}
\setcounter{savedlabelname}{0}
\setcounter{institution}{0}
\setcounter{savedinstitution}{0}
\setcounter{lista}{0}
\setcounter{savedlista}{0}
\setcounter{listb}{0}
\setcounter{savedlistb}{0}
\setcounter{listc}{0}
\setcounter{savedlistc}{0}
\setcounter{listd}{0}
\setcounter{savedlistd}{0}
\setcounter{liste}{0}
\setcounter{savedliste}{0}
\setcounter{listf}{0}
\setcounter{savedlistf}{0}
\setcounter{location}{0}
\setcounter{savedlocation}{0}
\setcounter{organization}{0}
\setcounter{savedorganization}{0}
\setcounter{origlocation}{0}
\setcounter{savedoriglocation}{0}
\setcounter{origpublisher}{0}
\setcounter{savedorigpublisher}{0}
\setcounter{publisher}{0}
\setcounter{savedpublisher}{0}
\setcounter{language}{0}
\setcounter{savedlanguage}{0}
\setcounter{origlanguage}{0}
\setcounter{savedoriglanguage}{0}
\setcounter{pageref}{0}
\setcounter{savedpageref}{0}
\setcounter{textcitecount}{0}
\setcounter{textcitetotal}{0}
\setcounter{textcitemaxnames}{0}
\setcounter{biburlnumpenalty}{0}
\setcounter{biburlucpenalty}{0}
\setcounter{biburllcpenalty}{0}
\setcounter{smartand}{1}
\setcounter{bbx:relatedcount}{0}
\setcounter{bbx:relatedtotal}{0}
\setcounter{cbx@tempcnta}{0}
\setcounter{cbx@tempcntb}{16}
\setcounter{lstnumber}{1}
\setcounter{AlgoLine}{0}
\setcounter{algocfline}{5}
\setcounter{algocfproc}{5}
\setcounter{algocf}{5}
\setcounter{FancyVerbLine}{1}
\setcounter{linenumber}{1}
\setcounter{LN@truepage}{74}
\setcounter{FV@TrueTabGroupLevel}{0}
\setcounter{FV@TrueTabCounter}{0}
\setcounter{FV@HighlightLinesStart}{0}
\setcounter{FV@HighlightLinesStop}{0}
\setcounter{FancyVerbLineBreakLast}{0}
\setcounter{float@type}{16}
\setcounter{minted@FancyVerbLineTemp}{41}
\setcounter{minted@pygmentizecounter}{2}
\setcounter{listing}{0}
\setcounter{Item}{0}
\setcounter{Hfootnote}{5}
\setcounter{bookmark@seq@number}{0}
\setcounter{parentequation}{0}
\setcounter{su@anzahl}{0}
\setcounter{LT@tables}{0}
\setcounter{LT@chunks}{0}
\setcounter{lstlisting}{0}
\setcounter{section@level}{2}
}
