\relax 
\providecommand\hyper@newdestlabel[2]{}
\@writefile{toc}{\contentsline {chapter}{\numberline {5}Evaluations}{63}{chapter.5}\protected@file@percent }
\@writefile{lof}{\addvspace {10\p@ }}
\@writefile{lot}{\addvspace {10\p@ }}
\@writefile{lol}{\addvspace {10\p@ }}
\@writefile{loa}{\addvspace {10\p@ }}
\newlabel{ch:evaluations}{{5}{63}{Evaluations}{chapter.5}{}}
\newlabel{ch:evaluations@cref}{{[chapter][5][]5}{[1][63][]63}}
\@writefile{toc}{\contentsline {section}{\numberline {5.1}Results}{63}{section.5.1}\protected@file@percent }
\newlabel{sec:results}{{5.1}{63}{Results}{section.5.1}{}}
\newlabel{sec:results@cref}{{[section][1][5]5.1}{[1][63][]63}}
\@writefile{toc}{\contentsline {subsection}{\numberline {5.1.1}Test Plan Builder}{63}{subsection.5.1.1}\protected@file@percent }
\@writefile{lof}{\contentsline {figure}{\numberline {5.1}{\ignorespaces Test plan builder.}}{64}{figure.5.1}\protected@file@percent }
\newlabel{fig:test_plan_builder}{{5.1}{64}{Test plan builder}{figure.5.1}{}}
\newlabel{fig:test_plan_builder@cref}{{[figure][1][5]5.1}{[1][63][]64}}
\@writefile{lof}{\contentsline {figure}{\numberline {5.2}{\ignorespaces Extended builder scene.}}{64}{figure.5.2}\protected@file@percent }
\newlabel{fig:extended_builder_scene}{{5.2}{64}{Extended builder scene}{figure.5.2}{}}
\newlabel{fig:extended_builder_scene@cref}{{[figure][2][5]5.2}{[1][63][]64}}
\@writefile{toc}{\contentsline {subsection}{\numberline {5.1.2}Test Plan Schedule}{64}{subsection.5.1.2}\protected@file@percent }
\@writefile{lof}{\contentsline {figure}{\numberline {5.3}{\ignorespaces Test plan schedule.}}{65}{figure.5.3}\protected@file@percent }
\newlabel{fig:test_plan_schedule}{{5.3}{65}{Test plan schedule}{figure.5.3}{}}
\newlabel{fig:test_plan_schedule@cref}{{[figure][3][5]5.3}{[1][63][]65}}
\@writefile{toc}{\contentsline {subsection}{\numberline {5.1.3}Error Proof}{66}{subsection.5.1.3}\protected@file@percent }
\newlabel{lst:erroneous_case}{{5.1}{66}{Erroneous case example}{lstlisting.5.1}{}}
\newlabel{lst:erroneous_case@cref}{{[listing][1][5]5.1}{[1][66][]66}}
\@writefile{lol}{\contentsline {lstlisting}{\numberline {5.1}Erroneous case example.}{66}{lstlisting.5.1}\protected@file@percent }
\@writefile{toc}{\contentsline {section}{\numberline {5.2}Improvements}{66}{section.5.2}\protected@file@percent }
\newlabel{sec:improvements}{{5.2}{66}{Improvements}{section.5.2}{}}
\newlabel{sec:improvements@cref}{{[section][2][5]5.2}{[1][66][]66}}
\@setckpt{2-4_evaluations}{
\setcounter{page}{68}
\setcounter{equation}{0}
\setcounter{enumi}{0}
\setcounter{enumii}{0}
\setcounter{enumiii}{0}
\setcounter{enumiv}{0}
\setcounter{footnote}{0}
\setcounter{mpfootnote}{0}
\setcounter{nag@c}{48}
\setcounter{part}{0}
\setcounter{chapter}{5}
\setcounter{section}{2}
\setcounter{subsection}{0}
\setcounter{subsubsection}{0}
\setcounter{paragraph}{0}
\setcounter{subparagraph}{0}
\setcounter{figure}{3}
\setcounter{table}{0}
\setcounter{tabx@nest}{0}
\setcounter{listtotal}{0}
\setcounter{listcount}{0}
\setcounter{liststart}{0}
\setcounter{liststop}{0}
\setcounter{citecount}{0}
\setcounter{citetotal}{0}
\setcounter{multicitecount}{0}
\setcounter{multicitetotal}{0}
\setcounter{instcount}{25}
\setcounter{maxnames}{3}
\setcounter{minnames}{3}
\setcounter{maxitems}{3}
\setcounter{minitems}{1}
\setcounter{citecounter}{0}
\setcounter{maxcitecounter}{0}
\setcounter{savedcitecounter}{0}
\setcounter{uniquelist}{0}
\setcounter{uniquename}{0}
\setcounter{refsection}{0}
\setcounter{refsegment}{0}
\setcounter{maxextratitle}{0}
\setcounter{maxextratitleyear}{0}
\setcounter{maxextraname}{0}
\setcounter{maxextradate}{0}
\setcounter{maxextraalpha}{0}
\setcounter{abbrvpenalty}{50}
\setcounter{highnamepenalty}{50}
\setcounter{lownamepenalty}{25}
\setcounter{maxparens}{3}
\setcounter{parenlevel}{0}
\setcounter{mincomprange}{10}
\setcounter{maxcomprange}{100000}
\setcounter{mincompwidth}{1}
\setcounter{afterword}{0}
\setcounter{savedafterword}{0}
\setcounter{annotator}{0}
\setcounter{savedannotator}{0}
\setcounter{author}{0}
\setcounter{savedauthor}{0}
\setcounter{bookauthor}{0}
\setcounter{savedbookauthor}{0}
\setcounter{commentator}{0}
\setcounter{savedcommentator}{0}
\setcounter{editor}{0}
\setcounter{savededitor}{0}
\setcounter{editora}{0}
\setcounter{savededitora}{0}
\setcounter{editorb}{0}
\setcounter{savededitorb}{0}
\setcounter{editorc}{0}
\setcounter{savededitorc}{0}
\setcounter{foreword}{0}
\setcounter{savedforeword}{0}
\setcounter{holder}{0}
\setcounter{savedholder}{0}
\setcounter{introduction}{0}
\setcounter{savedintroduction}{0}
\setcounter{namea}{0}
\setcounter{savednamea}{0}
\setcounter{nameb}{0}
\setcounter{savednameb}{0}
\setcounter{namec}{0}
\setcounter{savednamec}{0}
\setcounter{translator}{0}
\setcounter{savedtranslator}{0}
\setcounter{shortauthor}{0}
\setcounter{savedshortauthor}{0}
\setcounter{shorteditor}{0}
\setcounter{savedshorteditor}{0}
\setcounter{labelname}{0}
\setcounter{savedlabelname}{0}
\setcounter{institution}{0}
\setcounter{savedinstitution}{0}
\setcounter{lista}{0}
\setcounter{savedlista}{0}
\setcounter{listb}{0}
\setcounter{savedlistb}{0}
\setcounter{listc}{0}
\setcounter{savedlistc}{0}
\setcounter{listd}{0}
\setcounter{savedlistd}{0}
\setcounter{liste}{0}
\setcounter{savedliste}{0}
\setcounter{listf}{0}
\setcounter{savedlistf}{0}
\setcounter{location}{0}
\setcounter{savedlocation}{0}
\setcounter{organization}{0}
\setcounter{savedorganization}{0}
\setcounter{origlocation}{0}
\setcounter{savedoriglocation}{0}
\setcounter{origpublisher}{0}
\setcounter{savedorigpublisher}{0}
\setcounter{publisher}{0}
\setcounter{savedpublisher}{0}
\setcounter{language}{0}
\setcounter{savedlanguage}{0}
\setcounter{origlanguage}{0}
\setcounter{savedoriglanguage}{0}
\setcounter{pageref}{0}
\setcounter{savedpageref}{0}
\setcounter{textcitecount}{0}
\setcounter{textcitetotal}{0}
\setcounter{textcitemaxnames}{0}
\setcounter{biburlnumpenalty}{0}
\setcounter{biburlucpenalty}{0}
\setcounter{biburllcpenalty}{0}
\setcounter{smartand}{1}
\setcounter{bbx:relatedcount}{0}
\setcounter{bbx:relatedtotal}{0}
\setcounter{cbx@tempcnta}{0}
\setcounter{cbx@tempcntb}{16}
\setcounter{lstnumber}{9}
\setcounter{AlgoLine}{0}
\setcounter{algocfline}{5}
\setcounter{algocfproc}{5}
\setcounter{algocf}{5}
\setcounter{FancyVerbLine}{1}
\setcounter{linenumber}{1}
\setcounter{LN@truepage}{79}
\setcounter{FV@TrueTabGroupLevel}{0}
\setcounter{FV@TrueTabCounter}{0}
\setcounter{FV@HighlightLinesStart}{0}
\setcounter{FV@HighlightLinesStop}{0}
\setcounter{FancyVerbLineBreakLast}{0}
\setcounter{float@type}{16}
\setcounter{minted@FancyVerbLineTemp}{41}
\setcounter{minted@pygmentizecounter}{2}
\setcounter{listing}{0}
\setcounter{Item}{0}
\setcounter{Hfootnote}{5}
\setcounter{bookmark@seq@number}{0}
\setcounter{parentequation}{0}
\setcounter{su@anzahl}{0}
\setcounter{LT@tables}{0}
\setcounter{LT@chunks}{0}
\setcounter{lstlisting}{1}
\setcounter{section@level}{1}
}
