\relax 
\providecommand\hyper@newdestlabel[2]{}
\providecommand*\new@tpo@label[2]{}
\abx@aux@refcontext{none/global//global/global}
\providecommand\HyperFirstAtBeginDocument{\AtBeginDocument}
\HyperFirstAtBeginDocument{\ifx\hyper@anchor\@undefined
\global\let\oldcontentsline\contentsline
\gdef\contentsline#1#2#3#4{\oldcontentsline{#1}{#2}{#3}}
\global\let\oldnewlabel\newlabel
\gdef\newlabel#1#2{\newlabelxx{#1}#2}
\gdef\newlabelxx#1#2#3#4#5#6{\oldnewlabel{#1}{{#2}{#3}}}
\AtEndDocument{\ifx\hyper@anchor\@undefined
\let\contentsline\oldcontentsline
\let\newlabel\oldnewlabel
\fi}
\fi}
\global\let\hyper@last\relax 
\gdef\HyperFirstAtBeginDocument#1{#1}
\providecommand\HyField@AuxAddToFields[1]{}
\providecommand\HyField@AuxAddToCoFields[2]{}
\providecommand\BKM@entry[2]{}
\providecommand \oddpage@label [2]{}
\providecommand\@newglossary[4]{}
\@newglossary{acronym}{alg}{acr}{acn}
\providecommand\@glsorder[1]{}
\providecommand\@istfilename[1]{}
\@istfilename{main.ist}
\@glsorder{word}
\@writefile{toc}{\boolfalse {citerequest}\boolfalse {citetracker}\boolfalse {pagetracker}\boolfalse {backtracker}\relax }
\@writefile{lof}{\boolfalse {citerequest}\boolfalse {citetracker}\boolfalse {pagetracker}\boolfalse {backtracker}\relax }
\@writefile{lot}{\boolfalse {citerequest}\boolfalse {citetracker}\boolfalse {pagetracker}\boolfalse {backtracker}\relax }
\babel@aux{english}{}
\@input{1-0_abstract.aux}
\@input{1-1_acknowledgement.aux}
\@input{2-0_introduction.aux}
\BKM@entry{id=1,dest={636861707465722E31},srcline={3}}{496E74726F64756374696F6E}
\abx@aux@cite{Vock2012a}
\abx@aux@segm{0}{0}{Vock2012a}
\abx@aux@cite{Ng2008a}
\abx@aux@segm{0}{0}{Ng2008a}
\abx@aux@cite{Steinwender2016}
\abx@aux@segm{0}{0}{Steinwender2016}
\abx@aux@segm{0}{0}{Steinwender2016}
\abx@aux@cite{Elmenreich2003a}
\abx@aux@segm{0}{0}{Elmenreich2003a}
\BKM@entry{id=2,dest={73656374696F6E2E312E31},srcline={31}}{4D6F7469766174696F6E}
\abx@aux@segm{0}{0}{Steinwender2016}
\abx@aux@cite{Plankensteiner2015}
\abx@aux@segm{0}{0}{Plankensteiner2015}
\abx@aux@cite{Einspieler2021a}
\abx@aux@segm{0}{0}{Einspieler2021a}
\abx@aux@cite{Dar-TzenPeng1997a}
\abx@aux@segm{0}{0}{Dar-TzenPeng1997a}
\BKM@entry{id=3,dest={73656374696F6E2E312E32},srcline={43}}{476F616C73}
\BKM@entry{id=4,dest={73656374696F6E2E312E33},srcline={62}}{50726F626C656D2053746174656D656E74}
\BKM@entry{id=5,dest={73656374696F6E2E312E34},srcline={87}}{546865736973204F75746C696E65}
\@input{2-1_literature_review.aux}
\BKM@entry{id=6,dest={636861707465722E32},srcline={3}}{4C69746572617475726520526576696577}
\BKM@entry{id=7,dest={73656374696F6E2E322E31},srcline={5}}{4A617661536372697074204F626A656374204E6F746174696F6E}
\abx@aux@cite{Severance2012a}
\abx@aux@segm{0}{0}{Severance2012a}
\BKM@entry{id=8,dest={73656374696F6E2E322E32},srcline={14}}{43414E20427573}
\BKM@entry{id=9,dest={73656374696F6E2E322E33},srcline={60}}{4D6F5053}
\abx@aux@cite{Steinwender2013}
\abx@aux@segm{0}{0}{Steinwender2013}
\BKM@entry{id=10,dest={73756273656374696F6E2E322E332E31},srcline={79}}{5461726765747320436F6E66696775726174696F6E}
\BKM@entry{id=11,dest={73656374696F6E2E322E34},srcline={97}}{5363686564756C696E6720506172616469676D73}
\abx@aux@cite{Prabhakara2021a}
\abx@aux@segm{0}{0}{Prabhakara2021a}
\BKM@entry{id=12,dest={73756273656374696F6E2E322E342E31},srcline={118}}{5363686564756C696E672050726F626C656D}
\abx@aux@cite{Liu1994a}
\abx@aux@segm{0}{0}{Liu1994a}
\abx@aux@cite{Ecker1994a}
\abx@aux@segm{0}{0}{Ecker1994a}
\abx@aux@cite{Buttazzo2011}
\abx@aux@segm{0}{0}{Buttazzo2011}
\BKM@entry{id=13,dest={73756273656374696F6E2E322E342E32},srcline={129}}{5363686564756C696E6720416C676F726974686D73}
\abx@aux@segm{0}{0}{Buttazzo2011}
\abx@aux@segm{0}{0}{Buttazzo2011}
\abx@aux@segm{0}{0}{Buttazzo2011}
\abx@aux@segm{0}{0}{Buttazzo2011}
\abx@aux@segm{0}{0}{Buttazzo2011}
\abx@aux@segm{0}{0}{Buttazzo2011}
\abx@aux@segm{0}{0}{Elmenreich2003a}
\BKM@entry{id=14,dest={73656374696F6E2E322E35},srcline={165}}{436F6D7075746174696F6E616C20436F6D706C6578697479205468656F7279}
\abx@aux@cite{Weisstein2020a}
\abx@aux@segm{0}{0}{Weisstein2020a}
\BKM@entry{id=15,dest={73656374696F6E2E322E36},srcline={181}}{54696D65205574696C6974792046756E6374696F6E}
\BKM@entry{id=16,dest={73656374696F6E2E322E37},srcline={189}}{50726F6772616D6D696E67204C616E677561676573}
\BKM@entry{id=17,dest={73756273656374696F6E2E322E372E31},srcline={206}}{47726170686963616C205573657220496E7465726661636573}
\@input{2-2_system_model.aux}
\BKM@entry{id=18,dest={636861707465722E33},srcline={3}}{53797374656D204D6F64656C}
\BKM@entry{id=19,dest={73656374696F6E2E332E31},srcline={12}}{47656E6572616C2050726F63657373}
\abx@aux@cite{Craciunas2014b}
\abx@aux@segm{0}{0}{Craciunas2014b}
\BKM@entry{id=20,dest={73656374696F6E2E332E32},srcline={41}}{5461736B204D6F64656C}
\BKM@entry{id=21,dest={73756273656374696F6E2E332E322E31},srcline={42}}{526177204461746120526570726573656E746174696F6E}
\BKM@entry{id=22,dest={73756273656374696F6E2E332E322E32},srcline={86}}{5461736B205479706573}
\BKM@entry{id=23,dest={73656374696F6E2E332E33},srcline={116}}{53797374656D20436F6D706C69636174696F6E}
\abx@aux@cite{Craciunas2016a}
\abx@aux@segm{0}{0}{Craciunas2016a}
\BKM@entry{id=24,dest={73656374696F6E2E332E34},srcline={216}}{4461746120416E616C79736973}
\BKM@entry{id=25,dest={73756273656374696F6E2E332E342E31},srcline={233}}{496E7465726E616C20446570656E64656E63696573}
\BKM@entry{id=26,dest={73756273656374696F6E2E332E342E32},srcline={269}}{4E6574776F726B20446570656E64656E63696573}
\BKM@entry{id=27,dest={73656374696F6E2E332E35},srcline={450}}{54696D652D4C696E65204D6F64656C}
\BKM@entry{id=28,dest={73756273656374696F6E2E332E352E31},srcline={456}}{54696D6520536C6F7473}
\BKM@entry{id=29,dest={73756273656374696F6E2E332E352E32},srcline={479}}{5461736B2044656C617973}
\BKM@entry{id=30,dest={73656374696F6E2E332E36},srcline={504}}{5461736B20536574205472616E73666F726D6174696F6E}
\BKM@entry{id=31,dest={73656374696F6E2E332E37},srcline={524}}{4F7074696D697A6174696F6E2050726F626C656D}
\BKM@entry{id=32,dest={73756273656374696F6E2E332E372E31},srcline={544}}{506572696F6420426F756E64}
\BKM@entry{id=33,dest={73756273656374696F6E2E332E372E32},srcline={569}}{4F626A6563746976652046756E6374696F6E}
\BKM@entry{id=34,dest={73756273656374696F6E2E332E372E33},srcline={582}}{496E657175616C69747920436F6E73747261696E7473}
\@input{2-3_implementation.aux}
\BKM@entry{id=35,dest={636861707465722E34},srcline={3}}{496D706C656D656E746174696F6E}
\BKM@entry{id=36,dest={73656374696F6E2E342E31},srcline={20}}{536F66747761726520417263686974656374757265}
\BKM@entry{id=37,dest={73656374696F6E2E342E32},srcline={62}}{5573657220496E74657266616365}
\BKM@entry{id=38,dest={73756273656374696F6E2E342E322E31},srcline={75}}{546172676574732054726565}
\BKM@entry{id=39,dest={73756273656374696F6E2E342E322E32},srcline={154}}{4275696C6465722056696577}
\BKM@entry{id=40,dest={73756273656374696F6E2E342E322E33},srcline={226}}{5363686564756C65722056696577}
\BKM@entry{id=41,dest={73756273656374696F6E2E342E322E34},srcline={283}}{50726F6D70742056696577}
\BKM@entry{id=42,dest={73756273656374696F6E2E342E322E35},srcline={294}}{4D61696E2057696E646F77}
\BKM@entry{id=43,dest={73656374696F6E2E342E33},srcline={385}}{436F7265204D6F64756C6573}
\BKM@entry{id=44,dest={73756273656374696F6E2E342E332E31},srcline={394}}{5461726765747320436F7265}
\BKM@entry{id=45,dest={73756273656374696F6E2E342E332E32},srcline={434}}{4275696C64657220436F7265}
\BKM@entry{id=46,dest={73756273656374696F6E2E342E332E33},srcline={467}}{5363686564756C657220436F7265}
\BKM@entry{id=47,dest={73756273656374696F6E2E342E332E34},srcline={488}}{53616E69747920436865636B73}
\BKM@entry{id=48,dest={73756273656374696F6E2E342E332E35},srcline={526}}{4D61696E20416374696F6E73}
\BKM@entry{id=49,dest={73656374696F6E2E342E34},srcline={598}}{446174612042617365}
\BKM@entry{id=50,dest={73756273656374696F6E2E342E342E31},srcline={606}}{436F6E66696775726174696F6E2046696C6573}
\BKM@entry{id=51,dest={73756273656374696F6E2E342E342E32},srcline={614}}{546172676574204465736372697074696F6E}
\BKM@entry{id=52,dest={73756273656374696F6E2E342E342E33},srcline={621}}{50726F6A656374204465736372697074696F6E2046696C65}
\BKM@entry{id=53,dest={73756273656374696F6E2E342E342E34},srcline={633}}{4C6F6767696E67}
\BKM@entry{id=54,dest={73756273656374696F6E2E342E342E35},srcline={654}}{5363686564756C65204465736372697074696F6E}
\BKM@entry{id=55,dest={73756273656374696F6E2E342E342E36},srcline={667}}{5363686564756C6520536372697074}
\@input{2-4_evaluations.aux}
\BKM@entry{id=56,dest={636861707465722E35},srcline={3}}{4576616C756174696F6E73}
\BKM@entry{id=57,dest={73656374696F6E2E352E31},srcline={9}}{526573756C7473}
\BKM@entry{id=58,dest={73756273656374696F6E2E352E312E31},srcline={14}}{5465737420506C616E204275696C646572}
\BKM@entry{id=59,dest={73756273656374696F6E2E352E312E32},srcline={43}}{5465737420506C616E205363686564756C65}
\BKM@entry{id=60,dest={73756273656374696F6E2E352E312E33},srcline={72}}{4572726F722050726F6F66}
\BKM@entry{id=61,dest={73656374696F6E2E352E32},srcline={92}}{496D70726F76656D656E7473}
\@input{2-5_conclusion.aux}
\BKM@entry{id=62,dest={636861707465722E36},srcline={3}}{436F6E636C7573696F6E205C303436204F75746C6F6F6B}
\BKM@entry{id=63,dest={73656374696F6E2E362E31},srcline={7}}{54686573697320436F6E747269627574696F6E73}
\BKM@entry{id=64,dest={73656374696F6E2E362E32},srcline={31}}{46757475726520576F726B73}
\BKM@entry{id=65,dest={636861707465722A2E3237},srcline={284}}{4269626C696F677261706879}
\@writefile{toc}{\contentsline {chapter}{\nonumberline Bibliography}{73}{chapter*.27}\protected@file@percent }
\@writefile{lof}{\addvspace {10\p@ }}
\@writefile{lot}{\addvspace {10\p@ }}
\@writefile{lol}{\addvspace {10\p@ }}
\@writefile{loa}{\addvspace {10\p@ }}
\abx@aux@refcontextdefaultsdone
\abx@aux@defaultrefcontext{0}{Vock2012a}{none/global//global/global}
\abx@aux@defaultrefcontext{0}{Ng2008a}{none/global//global/global}
\abx@aux@defaultrefcontext{0}{Steinwender2016}{none/global//global/global}
\abx@aux@defaultrefcontext{0}{Elmenreich2003a}{none/global//global/global}
\abx@aux@defaultrefcontext{0}{Plankensteiner2015}{none/global//global/global}
\abx@aux@defaultrefcontext{0}{Einspieler2021a}{none/global//global/global}
\abx@aux@defaultrefcontext{0}{Dar-TzenPeng1997a}{none/global//global/global}
\abx@aux@defaultrefcontext{0}{Severance2012a}{none/global//global/global}
\abx@aux@defaultrefcontext{0}{Steinwender2013}{none/global//global/global}
\abx@aux@defaultrefcontext{0}{Prabhakara2021a}{none/global//global/global}
\abx@aux@defaultrefcontext{0}{Liu1994a}{none/global//global/global}
\abx@aux@defaultrefcontext{0}{Ecker1994a}{none/global//global/global}
\abx@aux@defaultrefcontext{0}{Buttazzo2011}{none/global//global/global}
\abx@aux@defaultrefcontext{0}{Weisstein2020a}{none/global//global/global}
\abx@aux@defaultrefcontext{0}{Craciunas2014b}{none/global//global/global}
\abx@aux@defaultrefcontext{0}{Craciunas2016a}{none/global//global/global}
\global\@namedef{scr@dte@chapter@lastmaxnumwidth}{11.25867pt}
\global\@namedef{scr@dte@section@lastmaxnumwidth}{18.26904pt}
\global\@namedef{scr@dte@subsection@lastmaxnumwidth}{26.73907pt}
\global\@namedef{scr@dte@table@lastmaxnumwidth}{18.26904pt}
\global\@namedef{scr@dte@figure@lastmaxnumwidth}{23.71298pt}
