{
    "name":"uMoPS_v5",
    "hw":"MOPS-2h3j4h5j",
    "sw":"CORE-joh345jk",
    "tasks": [ {
        "name":"setPwmFreq",
        "wcet":12,
        "in":[ {
            "label":"freq_hz",
            "type":"int",
            "default":0,
            "min":0,
            "max":1e6
        } ],
        "out":[]
    },{
        "name":"getPwmFreq",
        "wcet":9,
        "in":[],
        "out":[ {
            "label":"freq_hz",
            "type":"int"
        } ]
    },{
        "name":"add",
        "wcet":7,
        "in":[ {
            "label":"a",
            "type":"int",
            "default":0
        },{
            "label":"b",
            "type":"int",
            "default":0
        } ],
        "out":[ {
            "label":"sum",
            "type":"int"
        } ]
    } ]
}
